SSN,Firstname,LastName,Email,Street,City,State,ZipCode,PhoneNumber,DateOfBirth
124-12-4219,Artem,Batyan,ArtemBatyan@gmail.com,Chapaeva 1,Minsk,MNSK,220 125,(29), 07/16/1996
124-12-4220,Artem,Batyan,ArtemBatyan2@gmail.com,Chapaeva 1,Minsk,MNSK,220 125,(29) 324-54-54,07/16/1996
